C:\Users\samli\Documents\NetBeansProjects\VRPROJECT\src\main\java\com\stema\ejb\MultimediaCategoryEJB.java
C:\Users\samli\Documents\NetBeansProjects\VRPROJECT\src\main\java\com\stema\ejb\MultimediaEJB.java
C:\Users\samli\Documents\NetBeansProjects\VRPROJECT\src\main\java\com\stema\ejb\MongoClientProvider.java
C:\Users\samli\Documents\NetBeansProjects\VRPROJECT\src\main\java\com\stema\javabeans\MultimediaCategory.java
C:\Users\samli\Documents\NetBeansProjects\VRPROJECT\src\main\java\com\stema\managedbeans\MultimediaCategoryBean.java
C:\Users\samli\Documents\NetBeansProjects\VRPROJECT\src\main\java\com\stema\vrproject\JAXRSConfiguration.java
